{
	"credit": "Made with Blockbench",
	"textures": {
		"0": "block/black_shulker_box",
		"2": "block/blackstone_top",
		"particle": "block/black_shulker_box"
	},
	"elements": [
		{
			"from": [3.9, 11.47582, 3.17036],
			"to": [12.1, 12.47582, 8.17036],
			"rotation": {"angle": 22.5, "axis": "x", "origin": [-1, 8, 0]},
			"faces": {
				"north": {"uv": [3, 0, 11, 1], "texture": "#0"},
				"east": {"uv": [0, 0, 5, 1], "texture": "#0"},
				"south": {"uv": [4, 0, 12, 1], "texture": "#0"},
				"west": {"uv": [0, 0, 5, 1], "texture": "#0"},
				"up": {"uv": [3, 0, 11, 5], "texture": "#0"},
				"down": {"uv": [4, 6, 12, 11], "texture": "#0"}
			}
		},
		{
			"from": [3, 12.47582, 3.17036],
			"to": [13, 13.47582, 11.17036],
			"rotation": {"angle": 22.5, "axis": "x", "origin": [-1, 8, 0]},
			"faces": {
				"north": {"uv": [0, 0, 16, 1], "texture": "#0"},
				"east": {"uv": [0, 0, 16, 1], "texture": "#0"},
				"south": {"uv": [0, 0, 16, 1], "texture": "#0"},
				"west": {"uv": [0, 0, 16, 1], "texture": "#0"},
				"up": {"uv": [0, 2, 16, 14], "texture": "#0"},
				"down": {"uv": [0, 2, 16, 14], "texture": "#0"}
			}
		},
		{
			"from": [4, 12.47582, 11.17036],
			"to": [11, 13.47582, 12.17036],
			"rotation": {"angle": 22.5, "axis": "x", "origin": [-1, 8, 0]},
			"faces": {
				"north": {"uv": [0, 0, 7, 1], "texture": "#0"},
				"east": {"uv": [0, 0, 1, 1], "texture": "#0"},
				"south": {"uv": [0, 0, 7, 1], "texture": "#0"},
				"west": {"uv": [0, 0, 1, 1], "texture": "#0"},
				"up": {"uv": [1, 15, 14, 16], "texture": "#0"},
				"down": {"uv": [0, 0, 7, 1], "texture": "#0"}
			}
		},
		{
			"from": [5, 13.47582, 3.17036],
			"to": [11, 14.47582, 9.17036],
			"rotation": {"angle": 22.5, "axis": "x", "origin": [-1, 8, 0]},
			"faces": {
				"north": {"uv": [8, 1, 14, 2], "texture": "#0"},
				"east": {"uv": [1, 13, 7, 14], "texture": "#0"},
				"south": {"uv": [7, 13, 13, 14], "texture": "#0"},
				"west": {"uv": [3, 2, 9, 3], "texture": "#0"},
				"up": {"uv": [8, 1, 14, 7], "texture": "#0"},
				"down": {"uv": [6, 6, 12, 12], "texture": "#0"}
			}
		},
		{
			"from": [6, 13.47582, 9.17036],
			"to": [9, 14.47582, 11.17036],
			"rotation": {"angle": 22.5, "axis": "x", "origin": [-1, 8, 0]},
			"faces": {
				"north": {"uv": [0, 0, 3, 1], "texture": "#0"},
				"east": {"uv": [10, 14, 12, 15], "texture": "#0"},
				"south": {"uv": [8, 2, 11, 3], "texture": "#0"},
				"west": {"uv": [0, 0, 2, 1], "texture": "#0"},
				"up": {"uv": [6, 0, 9, 2], "texture": "#0"},
				"down": {"uv": [6, 7, 9, 9], "texture": "#0"}
			}
		},
		{
			"from": [7, 13.47582, 5.17036],
			"to": [8, 15.47582, 6.17036],
			"rotation": {"angle": 22.5, "axis": "x", "origin": [-1, 8, 0]},
			"faces": {
				"north": {"uv": [9, 6, 10, 8], "texture": "#0"},
				"east": {"uv": [6, 11, 7, 13], "texture": "#0"},
				"south": {"uv": [11, 9, 12, 11], "texture": "#0"},
				"west": {"uv": [4, 4, 5, 6], "texture": "#0"},
				"up": {"uv": [3, 1, 4, 2], "texture": "#0"},
				"down": {"uv": [2, 0, 3, 1], "texture": "#0"}
			}
		},
		{
			"from": [3.9, 11.47582, 2.17036],
			"to": [12.1, 13.47582, 3.17036],
			"rotation": {"angle": 22.5, "axis": "x", "origin": [-1, 8, 0]},
			"faces": {
				"north": {"uv": [0, 0, 8, 2], "texture": "#0"},
				"east": {"uv": [0, 0, 1, 2], "texture": "#0"},
				"south": {"uv": [4, 0, 12, 2], "texture": "#0"},
				"west": {"uv": [0, 0, 1, 2], "texture": "#0"},
				"up": {"uv": [1, 0, 15, 1], "texture": "#0"},
				"down": {"uv": [0, 0, 8, 1], "texture": "#0"}
			}
		},
		{
			"from": [7, 16.05714, 7.02201],
			"to": [8, 17.05714, 9.02201],
			"rotation": {"angle": 22.5, "axis": "x", "origin": [-1, 12, -2]},
			"faces": {
				"north": {"uv": [6, 6, 7, 7], "texture": "#0"},
				"east": {"uv": [10, 9, 12, 10], "texture": "#0"},
				"south": {"uv": [7, 6, 8, 7], "texture": "#0"},
				"west": {"uv": [7, 4, 9, 5], "texture": "#0"},
				"up": {"uv": [6, 12, 7, 14], "texture": "#0"},
				"down": {"uv": [5, 10, 6, 12], "texture": "#0"}
			}
		},
		{
			"from": [4, 8, 4],
			"to": [12, 9, 12],
			"rotation": {"angle": 0, "axis": "y", "origin": [-1, 8, 0]},
			"faces": {
				"north": {"uv": [0, 0, 8, 1], "texture": "#0"},
				"east": {"uv": [0, 0, 8, 1], "texture": "#0"},
				"south": {"uv": [0, 0, 8, 1], "texture": "#0"},
				"west": {"uv": [0, 0, 8, 1], "texture": "#0"},
				"up": {"uv": [4, 4, 12, 12], "texture": "#0"},
				"down": {"uv": [4, 4, 12, 12], "texture": "#0"}
			}
		},
		{
			"from": [4, 9, 4],
			"to": [12, 11, 7],
			"rotation": {"angle": 0, "axis": "y", "origin": [-1, 8, 0]},
			"faces": {
				"north": {"uv": [0, 0, 8, 1], "texture": "#0"},
				"east": {"uv": [0, 0, 8, 1], "texture": "#0"},
				"south": {"uv": [0, 0, 8, 1], "texture": "#0"},
				"west": {"uv": [0, 0, 8, 1], "texture": "#0"},
				"up": {"uv": [4, 4, 12, 12], "texture": "#0"},
				"down": {"uv": [4, 4, 12, 12], "texture": "#0"}
			}
		},
		{
			"from": [3.9, 8, 4],
			"to": [3.9, 9, 12],
			"rotation": {"angle": 0, "axis": "y", "origin": [-1, 0, 0]},
			"faces": {
				"north": {"uv": [0, 0, 0, 1], "texture": "#0"},
				"east": {"uv": [0, 0, 8, 1], "texture": "#0"},
				"south": {"uv": [0, 0, 0, 1], "texture": "#0"},
				"west": {"uv": [0, 0, 8, 1], "texture": "#0"},
				"up": {"uv": [0, 0, 0, 8], "texture": "#0"},
				"down": {"uv": [0, 0, 0, 8], "texture": "#0"}
			}
		},
		{
			"from": [12.1, 8, 4],
			"to": [12.1, 9, 12],
			"rotation": {"angle": 0, "axis": "y", "origin": [-1, 0, 0]},
			"faces": {
				"north": {"uv": [0, 0, 0, 1], "texture": "#0"},
				"east": {"uv": [0, 0, 8, 1], "texture": "#0"},
				"south": {"uv": [0, 0, 0, 1], "texture": "#0"},
				"west": {"uv": [0, 0, 8, 1], "texture": "#0"},
				"up": {"uv": [0, 0, 0, 8], "texture": "#0"},
				"down": {"uv": [0, 0, 0, 8], "texture": "#0"}
			}
		},
		{
			"from": [4, 8, 3.9],
			"to": [12, 10, 3.9],
			"rotation": {"angle": 0, "axis": "y", "origin": [-1, 0, 0]},
			"faces": {
				"north": {"uv": [0, 0, 8, 1], "texture": "#0"},
				"east": {"uv": [0, 0, 0, 1], "texture": "#0"},
				"south": {"uv": [0, 0, 8, 1], "texture": "#0"},
				"west": {"uv": [0, 0, 0, 1], "texture": "#0"},
				"up": {"uv": [0, 0, 8, 0], "texture": "#0"},
				"down": {"uv": [0, 0, 8, 0], "texture": "#0"}
			}
		},
		{
			"from": [3.9, 3.5, 6],
			"to": [4.9, 4.5, 10],
			"faces": {
				"north": {"uv": [4, 3, 5, 4], "texture": "#2"},
				"east": {"uv": [4, 4, 8, 5], "texture": "#2"},
				"south": {"uv": [3, 3, 4, 4], "texture": "#2"},
				"west": {"uv": [4, 5, 8, 6], "texture": "#2"},
				"up": {"uv": [10, 4, 11, 8], "texture": "#2"},
				"down": {"uv": [10, 8, 11, 12], "texture": "#2"}
			}
		},
		{
			"from": [3.9, 2.46194, 10.19134],
			"to": [4.9, 3.46194, 12.19134],
			"rotation": {"angle": -22.5, "axis": "x", "origin": [3, 3, 11]},
			"faces": {
				"north": {"uv": [4, 3, 5, 4], "texture": "#2"},
				"east": {"uv": [4, 4, 8, 5], "texture": "#2"},
				"south": {"uv": [3, 3, 4, 4], "texture": "#2"},
				"west": {"uv": [4, 5, 8, 6], "texture": "#2"},
				"up": {"uv": [10, 4, 11, 8], "texture": "#2"},
				"down": {"uv": [10, 8, 11, 12], "texture": "#2"}
			}
		},
		{
			"from": [3.9, 2.46194, 3.80866],
			"to": [4.9, 3.46194, 5.80866],
			"rotation": {"angle": 22.5, "axis": "x", "origin": [3, 3, 5]},
			"faces": {
				"north": {"uv": [4, 3, 5, 4], "texture": "#2"},
				"east": {"uv": [4, 4, 8, 5], "texture": "#2"},
				"south": {"uv": [3, 3, 4, 4], "texture": "#2"},
				"west": {"uv": [4, 5, 8, 6], "texture": "#2"},
				"up": {"uv": [10, 4, 11, 8], "texture": "#2"},
				"down": {"uv": [10, 8, 11, 12], "texture": "#2"}
			}
		},
		{
			"from": [3.8, 2.96037, 8.89645],
			"to": [4.9, 3.96037, 10.89645],
			"rotation": {"angle": 45, "axis": "x", "origin": [3, 3, 10]},
			"faces": {
				"north": {"uv": [4, 3, 5, 4], "texture": "#2"},
				"east": {"uv": [4, 4, 8, 5], "texture": "#2"},
				"south": {"uv": [3, 3, 4, 4], "texture": "#2"},
				"west": {"uv": [4, 5, 8, 6], "texture": "#2"},
				"up": {"uv": [10, 4, 11, 8], "texture": "#2"},
				"down": {"uv": [10, 8, 11, 12], "texture": "#2"}
			}
		},
		{
			"from": [3.8, 2.96037, 5.10355],
			"to": [4.9, 3.96037, 7.10355],
			"rotation": {"angle": -45, "axis": "x", "origin": [3, 3, 6]},
			"faces": {
				"north": {"uv": [4, 3, 5, 4], "texture": "#2"},
				"east": {"uv": [4, 4, 8, 5], "texture": "#2"},
				"south": {"uv": [3, 3, 4, 4], "texture": "#2"},
				"west": {"uv": [4, 5, 8, 6], "texture": "#2"},
				"up": {"uv": [10, 4, 11, 8], "texture": "#2"},
				"down": {"uv": [10, 8, 11, 12], "texture": "#2"}
			}
		},
		{
			"from": [3.9, 0.5, 7],
			"to": [4.9, 2.5, 9],
			"rotation": {"angle": 0, "axis": "y", "origin": [0, 1, 0]},
			"faces": {
				"north": {"uv": [0, 0, 1, 1], "texture": "#2"},
				"east": {"uv": [8, 4, 10, 5], "texture": "#2"},
				"south": {"uv": [2, 3, 3, 4], "texture": "#2"},
				"west": {"uv": [5, 12, 7, 14], "texture": "#2"},
				"up": {"uv": [0, 3, 1, 5], "texture": "#2"},
				"down": {"uv": [1, 5, 2, 7], "texture": "#2"}
			}
		}
	],
	"display": {
		"thirdperson_righthand": {
			"rotation": [0, -90, 0]
		},
		"thirdperson_lefthand": {
			"rotation": [0, 90, 0]
		},
		"ground": {
			"translation": [0, 9.25, 0],
			"scale": [1.62, 1.62, 1.62]
		},
		"gui": {
			"rotation": [27, 125, 0],
			"translation": [0, 1.5, 0]
		},
		"head": {
			"rotation": [0, -90, 0],
			"translation": [0, 4.75, 0],
			"scale": [1.81, 1.81, 1.81]
		},
		"fixed": {
			"rotation": [0, -90, 0],
			"translation": [0, 3.5, -2],
			"scale": [1.62, 1.62, 1.62]
		}
	},
	"groups": [
		{
			"name": "beret",
			"origin": [-1, 0, 0],
			"rotation": [0, -90, 0],
			"color": 0,
			"children": [0, 1, 2, 3, 4, 5, 6, 7, 8, 9, 10, 11, 12]
		},
		{
			"name": "stache",
			"origin": [0, 0, 0],
			"rotation": [0, -90, 0],
			"color": 0,
			"children": [13, 14, 15, 16, 17, 18]
		}
	]
}