{
	"credit": "Made with Blockbench",
	"textures": {
		"0": "block/gold_block",
		"1": "block/diamond_block",
		"2": "block/emerald_block",
		"4": "block/redstone_block",
		"particle": "block/gold_block"
	},
	"elements": [
		{
			"from": [0, 2, 0],
			"to": [16, 6, 2],
			"faces": {
				"north": {"uv": [0, 0, 15, 2], "texture": "#0"},
				"east": {"uv": [2, 0, 4, 2], "texture": "#0"},
				"south": {"uv": [0, 0, 16, 2], "texture": "#0"},
				"west": {"uv": [0, 0, 2, 2], "texture": "#0"},
				"up": {"uv": [0, 13, 15, 15], "texture": "#0"},
				"down": {"uv": [0, 1, 15, 3], "texture": "#0"}
			}
		},
		{
			"from": [0, 2, 14],
			"to": [16, 6, 16],
			"rotation": {"angle": 0, "axis": "y", "origin": [8, 8, 22]},
			"faces": {
				"north": {"uv": [0, 0, 16, 2], "texture": "#0"},
				"east": {"uv": [2, 0, 4, 2], "texture": "#0"},
				"south": {"uv": [0, 0, 15, 2], "texture": "#0"},
				"west": {"uv": [11, 0, 13, 2], "texture": "#0"},
				"up": {"uv": [0, 13, 15, 15], "texture": "#0"},
				"down": {"uv": [0, 1, 15, 3], "texture": "#0"}
			}
		},
		{
			"from": [0, 2, 2],
			"to": [2, 6, 14],
			"rotation": {"angle": 0, "axis": "y", "origin": [8, 10, 10]},
			"faces": {
				"north": {"uv": [0, 0, 2, 2], "texture": "#0"},
				"east": {"uv": [0, 0, 12, 2], "texture": "#0"},
				"south": {"uv": [0, 0, 2, 2], "texture": "#0"},
				"west": {"uv": [1, 0, 13, 2], "texture": "#0"},
				"up": {"uv": [11, 1, 13, 13], "texture": "#0"},
				"down": {"uv": [1, 1, 3, 13], "texture": "#0"}
			}
		},
		{
			"from": [14, 2, 2],
			"to": [16, 6, 14],
			"rotation": {"angle": 0, "axis": "y", "origin": [22, 10, 10]},
			"faces": {
				"north": {"uv": [0, 0, 2, 2], "texture": "#0"},
				"east": {"uv": [2, 0, 14, 2], "texture": "#0"},
				"south": {"uv": [0, 0, 2, 2], "texture": "#0"},
				"west": {"uv": [0, 0, 12, 2], "texture": "#0"},
				"up": {"uv": [10, 1, 12, 13], "texture": "#0"},
				"down": {"uv": [1, 0, 3, 12], "texture": "#0"}
			}
		},
		{
			"from": [14, 6, 12],
			"to": [16, 9, 16],
			"rotation": {"angle": 0, "axis": "y", "origin": [22, 14, 20]},
			"faces": {
				"north": {"uv": [0, 0, 2, 2], "texture": "#0"},
				"east": {"uv": [2, 0, 14, 2], "texture": "#0"},
				"south": {"uv": [0, 0, 2, 2], "texture": "#0"},
				"west": {"uv": [0, 0, 12, 2], "texture": "#0"},
				"up": {"uv": [12, 6, 14, 8], "texture": "#0"},
				"down": {"uv": [1, 0, 3, 12], "texture": "#0"}
			}
		},
		{
			"from": [14, 6, 0],
			"to": [16, 9, 4],
			"rotation": {"angle": 0, "axis": "y", "origin": [22, 14, 8]},
			"faces": {
				"north": {"uv": [0, 0, 2, 2], "texture": "#0"},
				"east": {"uv": [2, 0, 14, 2], "texture": "#0"},
				"south": {"uv": [0, 0, 2, 2], "texture": "#0"},
				"west": {"uv": [0, 0, 12, 2], "texture": "#0"},
				"up": {"uv": [12, 6, 14, 8], "texture": "#0"},
				"down": {"uv": [1, 0, 3, 12], "texture": "#0"}
			}
		},
		{
			"from": [0, 6, 12],
			"to": [2, 9, 16],
			"rotation": {"angle": 0, "axis": "y", "origin": [8, 14, 20]},
			"faces": {
				"north": {"uv": [0, 0, 2, 2], "texture": "#0"},
				"east": {"uv": [2, 0, 14, 2], "texture": "#0"},
				"south": {"uv": [0, 0, 2, 2], "texture": "#0"},
				"west": {"uv": [0, 0, 12, 2], "texture": "#0"},
				"up": {"uv": [12, 6, 14, 8], "texture": "#0"},
				"down": {"uv": [1, 0, 3, 12], "texture": "#0"}
			}
		},
		{
			"from": [0, 6, 0],
			"to": [2, 9, 4],
			"rotation": {"angle": 0, "axis": "y", "origin": [8, 14, 8]},
			"faces": {
				"north": {"uv": [0, 0, 2, 2], "texture": "#0"},
				"east": {"uv": [2, 0, 14, 2], "texture": "#0"},
				"south": {"uv": [0, 0, 2, 2], "texture": "#0"},
				"west": {"uv": [0, 0, 12, 2], "texture": "#0"},
				"up": {"uv": [12, 6, 14, 8], "texture": "#0"},
				"down": {"uv": [1, 0, 3, 12], "texture": "#0"}
			}
		},
		{
			"from": [12, 6, 14],
			"to": [14, 9, 16],
			"rotation": {"angle": 0, "axis": "y", "origin": [20, 14, 22]},
			"faces": {
				"north": {"uv": [0, 0, 2, 2], "texture": "#0"},
				"east": {"uv": [2, 0, 14, 2], "texture": "#0"},
				"south": {"uv": [0, 0, 2, 2], "texture": "#0"},
				"west": {"uv": [0, 0, 12, 2], "texture": "#0"},
				"up": {"uv": [12, 6, 14, 8], "texture": "#0"},
				"down": {"uv": [1, 0, 3, 12], "texture": "#0"}
			}
		},
		{
			"from": [12, 6, 0],
			"to": [14, 9, 2],
			"rotation": {"angle": 0, "axis": "y", "origin": [20, 14, 8]},
			"faces": {
				"north": {"uv": [0, 0, 2, 2], "texture": "#0"},
				"east": {"uv": [2, 0, 14, 2], "texture": "#0"},
				"south": {"uv": [0, 0, 2, 2], "texture": "#0"},
				"west": {"uv": [0, 0, 12, 2], "texture": "#0"},
				"up": {"uv": [12, 6, 14, 8], "texture": "#0"},
				"down": {"uv": [1, 0, 3, 12], "texture": "#0"}
			}
		},
		{
			"from": [2, 6, 14],
			"to": [4, 9, 16],
			"rotation": {"angle": 0, "axis": "y", "origin": [10, 14, 22]},
			"faces": {
				"north": {"uv": [0, 0, 2, 2], "texture": "#0"},
				"east": {"uv": [2, 0, 14, 2], "texture": "#0"},
				"south": {"uv": [0, 0, 2, 2], "texture": "#0"},
				"west": {"uv": [0, 0, 12, 2], "texture": "#0"},
				"up": {"uv": [12, 6, 14, 8], "texture": "#0"},
				"down": {"uv": [1, 0, 3, 12], "texture": "#0"}
			}
		},
		{
			"from": [2, 6, 0],
			"to": [4, 9, 2],
			"rotation": {"angle": 0, "axis": "y", "origin": [10, 14, 8]},
			"faces": {
				"north": {"uv": [0, 0, 2, 2], "texture": "#0"},
				"east": {"uv": [2, 0, 14, 2], "texture": "#0"},
				"south": {"uv": [0, 0, 2, 2], "texture": "#0"},
				"west": {"uv": [0, 0, 12, 2], "texture": "#0"},
				"up": {"uv": [12, 6, 14, 8], "texture": "#0"},
				"down": {"uv": [1, 0, 3, 12], "texture": "#0"}
			}
		},
		{
			"from": [6, 6, 0],
			"to": [10, 9, 2],
			"rotation": {"angle": 0, "axis": "y", "origin": [14, 14, 8]},
			"faces": {
				"north": {"uv": [0, 0, 2, 2], "texture": "#0"},
				"east": {"uv": [2, 0, 14, 2], "texture": "#0"},
				"south": {"uv": [0, 0, 2, 2], "texture": "#0"},
				"west": {"uv": [0, 0, 12, 2], "texture": "#0"},
				"up": {"uv": [12, 6, 14, 8], "texture": "#0"},
				"down": {"uv": [1, 0, 3, 12], "texture": "#0"}
			}
		},
		{
			"from": [6, 6, 14],
			"to": [10, 9, 16],
			"rotation": {"angle": 0, "axis": "y", "origin": [14, 14, 22]},
			"faces": {
				"north": {"uv": [0, 0, 2, 2], "texture": "#0"},
				"east": {"uv": [2, 0, 14, 2], "texture": "#0"},
				"south": {"uv": [0, 0, 2, 2], "texture": "#0"},
				"west": {"uv": [0, 0, 12, 2], "texture": "#0"},
				"up": {"uv": [12, 6, 14, 8], "texture": "#0"},
				"down": {"uv": [1, 0, 3, 12], "texture": "#0"}
			}
		},
		{
			"from": [14, 6, 6],
			"to": [16, 9, 10],
			"rotation": {"angle": 0, "axis": "y", "origin": [22, 14, 14]},
			"faces": {
				"north": {"uv": [0, 0, 2, 2], "texture": "#0"},
				"east": {"uv": [2, 0, 14, 2], "texture": "#0"},
				"south": {"uv": [0, 0, 2, 2], "texture": "#0"},
				"west": {"uv": [0, 0, 12, 2], "texture": "#0"},
				"up": {"uv": [12, 6, 14, 8], "texture": "#0"},
				"down": {"uv": [1, 0, 3, 12], "texture": "#0"}
			}
		},
		{
			"from": [0, 6, 6],
			"to": [2, 9, 10],
			"rotation": {"angle": 0, "axis": "y", "origin": [8, 14, 14]},
			"faces": {
				"north": {"uv": [0, 0, 2, 2], "texture": "#0"},
				"east": {"uv": [2, 0, 14, 2], "texture": "#0"},
				"south": {"uv": [0, 0, 2, 2], "texture": "#0"},
				"west": {"uv": [0, 0, 12, 2], "texture": "#0"},
				"up": {"uv": [12, 6, 14, 8], "texture": "#0"},
				"down": {"uv": [1, 0, 3, 12], "texture": "#0"}
			}
		},
		{
			"name": "gems",
			"from": [12, 3, -1],
			"to": [14, 5, 0],
			"rotation": {"angle": 0, "axis": "y", "origin": [20, 11, 7]},
			"faces": {
				"north": {"uv": [0, 0, 6, 6], "texture": "#4"},
				"east": {"uv": [2, 0, 4, 6], "texture": "#4"},
				"south": {"uv": [0, 0, 2, 2], "texture": "#4"},
				"west": {"uv": [0, 0, 2, 9], "texture": "#4"},
				"up": {"uv": [5, 1, 12, 3], "texture": "#4"},
				"down": {"uv": [0, 0, 6, 2], "texture": "#4"}
			}
		},
		{
			"name": "gems",
			"from": [6, 3, -1],
			"to": [10, 5, 0],
			"rotation": {"angle": 0, "axis": "y", "origin": [14, 11, 7]},
			"faces": {
				"north": {"uv": [4, 4, 12, 9], "texture": "#2"},
				"east": {"uv": [10, 7, 12, 12], "texture": "#2"},
				"south": {"uv": [0, 0, 2, 2], "texture": "#2"},
				"west": {"uv": [1, 1, 3, 6], "texture": "#2"},
				"up": {"uv": [2, 1, 12, 3], "texture": "#2"},
				"down": {"uv": [4, 2, 14, 4], "texture": "#2"}
			}
		},
		{
			"name": "gems",
			"from": [2, 3, -1],
			"to": [4, 5, 0],
			"rotation": {"angle": 0, "axis": "y", "origin": [10, 11, 7]},
			"faces": {
				"north": {"uv": [4, 2, 8, 6], "texture": "#1"},
				"east": {"uv": [13, 0, 14, 2], "texture": "#1"},
				"south": {"uv": [0, 0, 2, 2], "texture": "#1"},
				"west": {"uv": [5, 5, 6, 7], "texture": "#1"},
				"up": {"uv": [12, 5, 14, 11], "texture": "#1"},
				"down": {"uv": [1, 0, 7, 2], "texture": "#1"}
			}
		}
	],
	"display": {
		"thirdperson_righthand": {
			"rotation": [52.5, 0, 0],
			"translation": [0, 2.5, 0],
			"scale": [0.5, 0.5, 0.5]
		},
		"thirdperson_lefthand": {
			"rotation": [53, 0, 0],
			"translation": [0, 2.5, 0],
			"scale": [0.5, 0.5, 0.5]
		},
		"firstperson_righthand": {
			"translation": [1.25, 4.25, 0]
		},
		"firstperson_lefthand": {
			"translation": [3.5, 3.75, 0]
		},
		"ground": {
			"translation": [0, 2.25, 0],
			"scale": [0.6, 0.6, 0.6]
		},
		"gui": {
			"rotation": [27, -145, 0],
			"translation": [0, 1.25, 0],
			"scale": [0.6, 0.6, 0.6]
		},
		"head": {
			"translation": [0, 11, 0]
		},
		"fixed": {
			"rotation": [-90, 0, 0],
			"translation": [0, 0, -6.25]
		}
	}
}