{
	"credit": "Made with Blockbench",
	"texture_size": [32, 32],
	"textures": {
		"0": "hats/misc/freeze",
		"particle": "hats/misc/freeze"
	},
	"elements": [
		{
			"name": "front",
			"from": [3.25, 1, 2.75],
			"to": [12.75, 8.5, 2.75],
			"faces": {
				"north": {"uv": [15.5, 15.5, 16, 16], "texture": "#0"},
				"east": {"uv": [0, 0, 0, 7.5], "texture": "#0"},
				"south": {"uv": [15.5, 15.5, 16, 16], "texture": "#0"},
				"west": {"uv": [0, 0, 0, 7.5], "texture": "#0"},
				"up": {"uv": [0, 0, 9.5, 0], "texture": "#0"},
				"down": {"uv": [0, 0, 9.5, 0], "texture": "#0"}
			}
		},
		{
			"name": "right",
			"from": [12.75, 1, 2.75],
			"to": [12.75, 8.5, 8],
			"faces": {
				"north": {"uv": [0, 0, 0, 7.5], "texture": "#0"},
				"east": {"uv": [15.5, 15.5, 16, 16], "texture": "#0"},
				"south": {"uv": [0, 0, 0, 7.5], "texture": "#0"},
				"west": {"uv": [15.5, 15.5, 16, 16], "texture": "#0"},
				"up": {"uv": [0, 0, 0, 5.25], "texture": "#0"},
				"down": {"uv": [0, 0, 0, 5.25], "texture": "#0"}
			}
		},
		{
			"name": "top",
			"from": [3.25, 8.5, 2.75],
			"to": [12.75, 8.5, 8],
			"faces": {
				"north": {"uv": [0, 0, 9.5, 0], "texture": "#0"},
				"east": {"uv": [0, 0, 5.25, 0], "texture": "#0"},
				"south": {"uv": [0, 0, 9.5, 0], "texture": "#0"},
				"west": {"uv": [0, 0, 5.25, 0], "texture": "#0"},
				"up": {"uv": [15.5, 15.5, 16, 16], "texture": "#0"},
				"down": {"uv": [16, 15.5, 16.5, 16], "texture": "#0"}
			}
		},
		{
			"name": "left",
			"from": [3.25, 1, 2.75],
			"to": [3.25, 8.5, 8],
			"faces": {
				"north": {"uv": [0, 0, 0, 7.5], "texture": "#0"},
				"east": {"uv": [15.5, 15.5, 16, 16], "texture": "#0"},
				"south": {"uv": [0, 0, 0, 7.5], "texture": "#0"},
				"west": {"uv": [15.5, 15.5, 16.5, 16], "texture": "#0"},
				"up": {"uv": [0, 0, 0, 5.25], "texture": "#0"},
				"down": {"uv": [0, 0, 0, 5.25], "texture": "#0"}
			}
		},
		{
			"name": "reye",
			"from": [8.75, 2, 3],
			"to": [11, 4.25, 6.75],
			"faces": {
				"north": {"uv": [1, 13, 3, 15], "texture": "#0"},
				"east": {"uv": [3.5, 13.5, 4, 14.5], "texture": "#0"},
				"south": {"uv": [0, 0, 2, 2], "texture": "#0"},
				"west": {"uv": [3.5, 13.5, 4, 14.5], "texture": "#0"},
				"up": {"uv": [3, 13, 4, 13.5], "texture": "#0"},
				"down": {"uv": [3, 14.5, 4, 15], "texture": "#0"}
			}
		},
		{
			"name": "leye",
			"from": [5, 2, 3],
			"to": [7.25, 4.25, 6.75],
			"faces": {
				"north": {"uv": [1, 13, 3, 15], "texture": "#0"},
				"east": {"uv": [3.5, 13.5, 4, 14.5], "texture": "#0"},
				"south": {"uv": [0, 0, 2, 2], "texture": "#0"},
				"west": {"uv": [3, 13.5, 3.5, 14.5], "texture": "#0"},
				"up": {"uv": [3, 13, 4, 13.5], "texture": "#0"},
				"down": {"uv": [3, 14.5, 4, 15], "texture": "#0"}
			}
		},
		{
			"name": "lside",
			"from": [2.75, 1, 8],
			"to": [3.75, 8.5, 14],
			"faces": {
				"north": {"uv": [5.5, 1, 6, 4.75], "texture": "#0"},
				"east": {"uv": [1.5, 1, 4.5, 4.75], "texture": "#0"},
				"south": {"uv": [15, 2.5, 15.5, 6.25], "texture": "#0"},
				"west": {"uv": [6, 0.5, 9, 4.25], "texture": "#0"},
				"up": {"uv": [0, 0, 1, 6], "texture": "#0"},
				"down": {"uv": [0, 0, 1, 6], "texture": "#0"}
			}
		},
		{
			"name": "rside",
			"from": [12.25, 1, 8],
			"to": [13.25, 8.5, 14],
			"faces": {
				"north": {"uv": [5.5, 1, 6, 4.75], "texture": "#0"},
				"east": {"uv": [9, 0.5, 6, 4.25], "texture": "#0"},
				"south": {"uv": [11, 2.5, 11.5, 6.25], "texture": "#0"},
				"west": {"uv": [1, 1, 4, 4.75], "texture": "#0"},
				"up": {"uv": [0, 0, 1, 6], "texture": "#0"},
				"down": {"uv": [0, 0, 1, 6], "texture": "#0"}
			}
		},
		{
			"name": "back",
			"from": [3.75, 1, 13],
			"to": [12.25, 8.5, 14],
			"faces": {
				"north": {"uv": [0.5, 1, 4.75, 4.75], "texture": "#0"},
				"east": {"uv": [0, 0, 1, 7.5], "texture": "#0"},
				"south": {"uv": [10.5, 2, 14.75, 5.75], "texture": "#0"},
				"west": {"uv": [0, 0, 1, 7.5], "texture": "#0"},
				"up": {"uv": [0, 0, 8.5, 1], "texture": "#0"},
				"down": {"uv": [10, 5, 14.25, 5.5], "texture": "#0"}
			}
		},
		{
			"name": "neck",
			"from": [2.75, -1, 1.75],
			"to": [13.25, 1, 13],
			"faces": {
				"north": {"uv": [0, 5.5, 5, 6.5], "texture": "#0"},
				"east": {"uv": [5.625, 5.5, 0, 6.5], "texture": "#0"},
				"south": {"uv": [10, 5.5, 15.25, 6.5], "texture": "#0"},
				"west": {"uv": [0, 5.5, 5.625, 6.5], "texture": "#0"},
				"up": {"uv": [0, 0, 5, 5.5], "texture": "#0"},
				"down": {"uv": [10, 1.5, 15.25, 7.125], "texture": "#0"}
			}
		},
		{
			"name": "chest",
			"from": [4, -5, 3],
			"to": [12, -1, 12],
			"faces": {
				"north": {"uv": [0, 6.5, 4, 8.5], "texture": "#0"},
				"east": {"uv": [8.5, 6.5, 4, 8.5], "texture": "#0"},
				"south": {"uv": [0, 6.5, 4, 8.5], "texture": "#0"},
				"west": {"uv": [4, 6.5, 8.5, 8.5], "texture": "#0"},
				"up": {"uv": [0, 0, 8, 9], "texture": "#0"},
				"down": {"uv": [0.5, 1, 4.5, 5.5], "texture": "#0"}
			}
		},
		{
			"name": "top",
			"from": [2.75, 8.5, 8],
			"to": [13.25, 9.5, 14],
			"faces": {
				"north": {"uv": [5.5, 0, 6, 5], "rotation": 90, "texture": "#0"},
				"east": {"uv": [10, 0.5, 10.5, 3.5], "rotation": 90, "texture": "#0"},
				"south": {"uv": [10, 2, 15.25, 2.5], "texture": "#0"},
				"west": {"uv": [9.5, 0, 10, 3], "rotation": 270, "texture": "#0"},
				"up": {"uv": [10, 0.5, 15.25, 3.5], "texture": "#0"},
				"down": {"uv": [0, 0, 10.5, 6], "texture": "#0"}
			}
		},
		{
			"name": "lnub",
			"from": [2, 4.25, 9],
			"to": [3, 6.25, 11],
			"faces": {
				"north": {"uv": [3, 7.5, 3.5, 8.5], "texture": "#0"},
				"east": {"uv": [0, 0, 1, 1], "texture": "#0"},
				"south": {"uv": [0, 0, 0.5, 1], "texture": "#0"},
				"west": {"uv": [0, 0, 1, 1], "texture": "#0"},
				"up": {"uv": [0, 0, 0.5, 1], "texture": "#0"},
				"down": {"uv": [0, 0, 0.5, 1], "texture": "#0"}
			}
		},
		{
			"name": "rnub",
			"from": [13, 4.25, 9],
			"to": [14, 6.25, 11],
			"faces": {
				"north": {"uv": [3, 8.5, 3.5, 7.5], "texture": "#0"},
				"east": {"uv": [0, 0, 1, 1], "texture": "#0"},
				"south": {"uv": [0, 0, 0.5, 1], "texture": "#0"},
				"west": {"uv": [0, 0, 1, 1], "texture": "#0"},
				"up": {"uv": [0, 0, 0.5, 1], "texture": "#0"},
				"down": {"uv": [0, 0, 0.5, 1], "texture": "#0"}
			}
		},
		{
			"name": "rvent",
			"from": [9, 9.25, 9],
			"to": [12, 10.25, 12],
			"faces": {
				"north": {"uv": [7, 0.5, 8.5, 1], "texture": "#0"},
				"east": {"uv": [13.5, 2, 15, 2.5], "texture": "#0"},
				"south": {"uv": [13, 2.5, 14.5, 3], "texture": "#0"},
				"west": {"uv": [0, 0, 3, 1], "texture": "#0"},
				"up": {"uv": [10.5, 1, 12, 2.5], "texture": "#0"},
				"down": {"uv": [0, 0, 3, 3], "texture": "#0"}
			}
		},
		{
			"name": "lvent",
			"from": [4, 9.25, 9],
			"to": [7, 10.25, 12],
			"faces": {
				"north": {"uv": [7, 0.5, 8.5, 1], "texture": "#0"},
				"east": {"uv": [13, 2, 14.5, 2.5], "texture": "#0"},
				"south": {"uv": [12, 3, 13.5, 3.5], "texture": "#0"},
				"west": {"uv": [12.5, 2.5, 14, 3], "texture": "#0"},
				"up": {"uv": [13, 1, 14.5, 2.5], "texture": "#0"},
				"down": {"uv": [0, 0, 3, 3], "texture": "#0"}
			}
		}
	],
	"display": {
		"gui": {
			"rotation": [27, -145, 0],
			"translation": [0.5, 3.5, 0],
			"scale": [0.75, 0.75, 0.75]
		},
		"head": {
			"translation": [0, 7.25, 0],
			"scale": [1.8, 1.8, 1.8]
		}
	},
	"groups": [
		{
			"name": "group",
			"origin": [0, 0, 0],
			"color": 0,
			"children": [
				{
					"name": "visor",
					"origin": [0, 0, 0],
					"color": 0,
					"children": [0, 1, 2, 3]
				},
				{
					"name": "group",
					"origin": [0, 0, 0],
					"color": 0,
					"children": [4, 5, 6, 7, 8, 9, 10, 11, 12, 13, 14, 15]
				}
			]
		}
	]
}