{
	"credit": "Made with Blockbench",
	"texture_size": [32, 32],
	"textures": {
		"0": "hats/misc/samurai",
		"particle": "hats/misc/samurai"
	},
	"elements": [
		{
			"from": [4, 0.5, 3.75],
			"to": [12, 8.5, 4.75],
			"faces": {
				"north": {"uv": [0, 0, 4, 4], "texture": "#0"},
				"east": {"uv": [0, 0, 0.5, 4], "texture": "#0"},
				"south": {"uv": [0, 0, 4, 4], "texture": "#0"},
				"west": {"uv": [0, 0, 0.5, 4], "texture": "#0"},
				"up": {"uv": [0, 0, 4, 0.5], "texture": "#0"},
				"down": {"uv": [0, 0, 4, 0.5], "texture": "#0"}
			}
		},
		{
			"from": [4, 8, 3],
			"to": [12, 10, 13],
			"faces": {
				"north": {"uv": [0, 0, 4, 1], "texture": "#0"},
				"east": {"uv": [0, 10, 5, 11], "texture": "#0"},
				"south": {"uv": [0, 10, 4, 11], "texture": "#0"},
				"west": {"uv": [0, 10, 5, 11], "texture": "#0"},
				"up": {"uv": [0, 5, 5, 9], "rotation": 90, "texture": "#0"},
				"down": {"uv": [0, 8.5, 0.5, 9], "texture": "#0"}
			}
		},
		{
			"from": [4, 5, 13],
			"to": [13, 9, 14],
			"faces": {
				"north": {"uv": [11, 0, 15, 2], "texture": "#0"},
				"east": {"uv": [9, 0, 9.5, 2], "texture": "#0"},
				"south": {"uv": [11.5, 0, 16, 2], "texture": "#0"},
				"west": {"uv": [0, 0, 0.5, 2], "texture": "#0"},
				"up": {"uv": [12, 1.5, 16, 2], "texture": "#0"},
				"down": {"uv": [9, 0.5, 9.5, 1], "texture": "#0"}
			}
		},
		{
			"from": [3, 3, 14],
			"to": [14, 7, 15],
			"faces": {
				"north": {"uv": [10, 0, 16, 2], "texture": "#0"},
				"east": {"uv": [9, 0, 9.5, 2], "texture": "#0"},
				"south": {"uv": [10, 0, 16, 2], "texture": "#0"},
				"west": {"uv": [0, 0, 0.5, 2], "texture": "#0"},
				"up": {"uv": [10, 0.5, 16, 1], "texture": "#0"},
				"down": {"uv": [13.5, 1.5, 14, 2], "texture": "#0"}
			}
		},
		{
			"from": [1, 0, 15],
			"to": [15, 4, 16],
			"faces": {
				"north": {"uv": [9, 0, 16, 2], "texture": "#0"},
				"east": {"uv": [9, 0, 9.5, 2], "texture": "#0"},
				"south": {"uv": [9, 0, 16, 2], "texture": "#0"},
				"west": {"uv": [15.5, 0, 16, 2], "texture": "#0"},
				"up": {"uv": [9, 0.5, 16, 1], "texture": "#0"},
				"down": {"uv": [13.5, 1.5, 14, 2], "texture": "#0"}
			}
		},
		{
			"from": [3, 5, 3],
			"to": [4, 9, 14],
			"faces": {
				"north": {"uv": [15.5, 0, 16, 2], "texture": "#0"},
				"east": {"uv": [10.5, 0, 16, 2], "texture": "#0"},
				"south": {"uv": [9, 0, 9.5, 2], "texture": "#0"},
				"west": {"uv": [9, 0, 14.5, 2], "texture": "#0"},
				"up": {"uv": [9, 1.5, 14.5, 2], "rotation": 90, "texture": "#0"},
				"down": {"uv": [9, 0.5, 9.5, 1], "texture": "#0"}
			}
		},
		{
			"from": [2, 3, 4],
			"to": [3, 7, 14],
			"faces": {
				"north": {"uv": [15.5, 0, 16, 2], "texture": "#0"},
				"east": {"uv": [10.5, 0, 16, 2], "texture": "#0"},
				"south": {"uv": [9, 0, 9.5, 2], "texture": "#0"},
				"west": {"uv": [9, 0, 14.5, 2], "texture": "#0"},
				"up": {"uv": [9, 1, 14.5, 1.5], "rotation": 90, "texture": "#0"},
				"down": {"uv": [13.5, 1.5, 14, 2], "texture": "#0"}
			}
		},
		{
			"from": [2, 3, 14],
			"to": [3, 7, 15],
			"faces": {
				"north": {"uv": [0, 0, 0.5, 2], "texture": "#0"},
				"east": {"uv": [0, 0, 5.5, 2], "texture": "#0"},
				"south": {"uv": [9, 0, 9.5, 2], "texture": "#0"},
				"west": {"uv": [9, 0, 9.5, 2], "texture": "#0"},
				"up": {"uv": [11.5, 1.5, 12, 2], "rotation": 90, "texture": "#0"},
				"down": {"uv": [9, 0.5, 9.5, 1], "texture": "#0"}
			}
		},
		{
			"from": [1, 0, 5],
			"to": [2, 4, 15],
			"faces": {
				"north": {"uv": [15.5, 0, 16, 2], "texture": "#0"},
				"east": {"uv": [11, 0, 16, 2], "texture": "#0"},
				"south": {"uv": [0, 0, 0.5, 2], "texture": "#0"},
				"west": {"uv": [9, 0, 14, 2], "texture": "#0"},
				"up": {"uv": [9, 0.5, 14, 1], "rotation": 90, "texture": "#0"},
				"down": {"uv": [9, 0.5, 9.5, 1], "texture": "#0"}
			}
		},
		{
			"from": [14, 0, 5],
			"to": [15, 4, 15],
			"faces": {
				"north": {"uv": [15.5, 0, 16, 2], "texture": "#0"},
				"east": {"uv": [11, 0, 16, 2], "texture": "#0"},
				"south": {"uv": [0, 0, 0.5, 2], "texture": "#0"},
				"west": {"uv": [9, 0, 14, 2], "texture": "#0"},
				"up": {"uv": [11, 0, 16, 0.5], "rotation": 270, "texture": "#0"},
				"down": {"uv": [9, 0.5, 9.5, 1], "texture": "#0"}
			}
		},
		{
			"from": [13, 3, 4],
			"to": [14, 7, 14],
			"faces": {
				"north": {"uv": [15.5, 0, 16, 2], "texture": "#0"},
				"east": {"uv": [11, 0, 16, 2], "texture": "#0"},
				"south": {"uv": [0, 0, 0.5, 2], "texture": "#0"},
				"west": {"uv": [9, 0, 14, 2], "texture": "#0"},
				"up": {"uv": [9, 0, 14, 0.5], "rotation": 90, "texture": "#0"},
				"down": {"uv": [9, 0.5, 9.5, 1], "texture": "#0"}
			}
		},
		{
			"from": [12, 5, 3],
			"to": [13, 9, 13],
			"faces": {
				"north": {"uv": [15.5, 0, 16, 2], "texture": "#0"},
				"east": {"uv": [11, 0, 16, 2], "texture": "#0"},
				"south": {"uv": [15.5, 0, 16, 2], "texture": "#0"},
				"west": {"uv": [9, 0, 14.5, 2], "texture": "#0"},
				"up": {"uv": [10.5, 1.5, 16, 2], "rotation": 90, "texture": "#0"},
				"down": {"uv": [13.5, 1.5, 14, 2], "texture": "#0"}
			}
		},
		{
			"from": [4, 8, 2],
			"to": [12, 9, 3],
			"faces": {
				"north": {"uv": [0, 0, 4, 0.5], "texture": "#0"},
				"east": {"uv": [0, 5, 0.5, 5.5], "texture": "#0"},
				"south": {"uv": [0, 0, 4, 0.5], "texture": "#0"},
				"west": {"uv": [0, 5, 0.5, 5.5], "texture": "#0"},
				"up": {"uv": [0, 0, 4, 0.5], "texture": "#0"},
				"down": {"uv": [0, 5, 4, 5.5], "texture": "#0"}
			}
		},
		{
			"from": [5, 10, 4],
			"to": [11, 12, 12],
			"faces": {
				"north": {"uv": [0, 0, 3, 1], "texture": "#0"},
				"east": {"uv": [0, 9.5, 4, 10.5], "texture": "#0"},
				"south": {"uv": [0, 9.5, 3, 10.5], "texture": "#0"},
				"west": {"uv": [0, 9.5, 4, 10.5], "texture": "#0"},
				"up": {"uv": [0.5, 5.5, 4.5, 8.5], "texture": "#0"},
				"down": {"uv": [0, 0, 3, 4], "texture": "#0"}
			}
		},
		{
			"from": [5, 11, 3],
			"to": [11, 13, 4],
			"faces": {
				"north": {"uv": [8, 5.5, 11, 6.5], "texture": "#0"},
				"east": {"uv": [0, 0, 0.5, 1], "texture": "#0"},
				"south": {"uv": [8, 5.5, 11, 6.5], "texture": "#0"},
				"west": {"uv": [0, 0, 0.5, 1], "texture": "#0"},
				"up": {"uv": [8, 6, 11, 6.5], "texture": "#0"},
				"down": {"uv": [0, 0, 3, 0.5], "texture": "#0"}
			}
		},
		{
			"from": [3.75, 8, 3],
			"to": [12.25, 13, 4],
			"rotation": {"angle": 45, "axis": "x", "origin": [8, 11, 1.5]},
			"faces": {
				"north": {"uv": [5, 8, 9.5, 10.5], "texture": "#0"},
				"east": {"uv": [5, 8, 5.5, 10.5], "texture": "#0"},
				"south": {"uv": [0, 6, 4.25, 8.5], "texture": "#0"},
				"west": {"uv": [9, 8, 9.5, 10.5], "texture": "#0"},
				"up": {"uv": [0, 5, 4.25, 5.5], "texture": "#0"},
				"down": {"uv": [5, 10, 9.5, 10.5], "texture": "#0"}
			}
		},
		{
			"from": [4, 11, 3],
			"to": [5, 14, 4],
			"faces": {
				"north": {"uv": [11, 5, 11.5, 6.5], "texture": "#0"},
				"east": {"uv": [15.5, 4.5, 16, 6], "texture": "#0"},
				"south": {"uv": [14.5, 4, 15, 5.5], "texture": "#0"},
				"west": {"uv": [15.5, 5, 16, 6.5], "texture": "#0"},
				"up": {"uv": [13.5, 4.5, 14, 5], "texture": "#0"},
				"down": {"uv": [14.5, 6, 15, 6.5], "texture": "#0"}
			}
		},
		{
			"from": [1, 9, 4],
			"to": [4, 12, 5],
			"rotation": {"angle": 22.5, "axis": "y", "origin": [2.5, 10.5, 3.5]},
			"faces": {
				"north": {"uv": [5, 6.5, 6.5, 8], "texture": "#0"},
				"east": {"uv": [0.5, 6.5, 1, 8], "texture": "#0"},
				"south": {"uv": [1, 6.5, 2.5, 8], "texture": "#0"},
				"west": {"uv": [4, 6.5, 4.5, 8], "texture": "#0"},
				"up": {"uv": [2, 6.5, 3.5, 7], "texture": "#0"},
				"down": {"uv": [2.5, 8.5, 4, 9], "texture": "#0"}
			}
		},
		{
			"from": [11.38268, 9, 3.92388],
			"to": [14.38268, 12, 4.92388],
			"rotation": {"angle": -22.5, "axis": "y", "origin": [12.88268, 10.5, 4.42388]},
			"faces": {
				"north": {"uv": [5, 5, 6.5, 6.5], "texture": "#0"},
				"east": {"uv": [0.5, 6.5, 1, 8], "texture": "#0"},
				"south": {"uv": [0.5, 6.5, 2, 8], "texture": "#0"},
				"west": {"uv": [4, 6.5, 4.5, 8], "texture": "#0"},
				"up": {"uv": [2, 6.5, 3.5, 7], "texture": "#0"},
				"down": {"uv": [2.5, 8.5, 4, 9], "texture": "#0"}
			}
		},
		{
			"from": [11, 11, 3],
			"to": [12, 14, 4],
			"faces": {
				"north": {"uv": [7.5, 5, 8, 6.5], "texture": "#0"},
				"east": {"uv": [14.5, 4.5, 15, 6], "texture": "#0"},
				"south": {"uv": [14.5, 4, 15, 5.5], "texture": "#0"},
				"west": {"uv": [14.5, 4.5, 15, 6], "texture": "#0"},
				"up": {"uv": [13.5, 4.5, 14, 5], "texture": "#0"},
				"down": {"uv": [14.5, 6, 15, 6.5], "texture": "#0"}
			}
		},
		{
			"from": [3, 13, 3],
			"to": [4, 16, 4],
			"faces": {
				"north": {"uv": [11.5, 4, 12, 5.5], "texture": "#0"},
				"east": {"uv": [13.5, 5, 14, 6.5], "texture": "#0"},
				"south": {"uv": [15.5, 4, 16, 5.5], "texture": "#0"},
				"west": {"uv": [14.5, 3.5, 15, 5], "texture": "#0"},
				"up": {"uv": [15, 3.5, 15.5, 4], "texture": "#0"},
				"down": {"uv": [14.5, 6, 15, 6.5], "texture": "#0"}
			}
		},
		{
			"from": [12, 13, 3],
			"to": [13, 16, 4],
			"faces": {
				"north": {"uv": [7, 4, 7.5, 5.5], "texture": "#0"},
				"east": {"uv": [13.5, 5, 14, 6.5], "texture": "#0"},
				"south": {"uv": [15.5, 4, 16, 5.5], "texture": "#0"},
				"west": {"uv": [14.5, 3.5, 15, 5], "texture": "#0"},
				"up": {"uv": [15, 3.5, 15.5, 4], "texture": "#0"},
				"down": {"uv": [14.5, 6, 15, 6.5], "texture": "#0"}
			}
		},
		{
			"from": [12, 16, 3],
			"to": [12.5, 17, 4],
			"faces": {
				"north": {"uv": [7, 3.5, 7.25, 4], "texture": "#0"},
				"east": {"uv": [14.5, 4.5, 15, 5], "texture": "#0"},
				"south": {"uv": [14.5, 4.5, 14.75, 5], "texture": "#0"},
				"west": {"uv": [13.5, 3.5, 14, 4], "texture": "#0"},
				"up": {"uv": [11.5, 3.5, 11.75, 4], "texture": "#0"},
				"down": {"uv": [14.5, 6, 14.75, 6.5], "texture": "#0"}
			}
		},
		{
			"from": [3.5, 16, 3],
			"to": [4, 17, 4],
			"faces": {
				"north": {"uv": [11.5, 3.5, 11.75, 4], "texture": "#0"},
				"east": {"uv": [14.5, 4.5, 15, 5], "texture": "#0"},
				"south": {"uv": [14.5, 4.5, 14.75, 5], "texture": "#0"},
				"west": {"uv": [13.5, 3.5, 14, 4], "texture": "#0"},
				"up": {"uv": [11.5, 3.5, 11.75, 4], "texture": "#0"},
				"down": {"uv": [14.5, 6, 14.75, 6.5], "texture": "#0"}
			}
		},
		{
			"from": [6, 12, 6],
			"to": [10, 13, 11],
			"faces": {
				"north": {"uv": [1.5, 5, 3.5, 5.5], "texture": "#0"},
				"east": {"uv": [1, 9, 3.5, 9.5], "texture": "#0"},
				"south": {"uv": [1.5, 10.5, 3.5, 11], "texture": "#0"},
				"west": {"uv": [1.5, 9.5, 4, 10], "texture": "#0"},
				"up": {"uv": [1, 6, 3.5, 8], "texture": "#0"},
				"down": {"uv": [0, 0, 2, 2.5], "texture": "#0"}
			}
		}
	],
	"display": {
		"gui": {
			"rotation": [27, -145, 0],
			"translation": [1, 1, 0],
			"scale": [0.85, 0.85, 0.85]
		},
		"head": {
			"translation": [0, 5, -2.25],
			"scale": [1.6, 1.6, 1.6]
		}
	}
}