{
	"parent": "minecraft:hats/misc/gas_mask",
	"textures": {
		"0": "block/bw_netherite_block",
		"1": "block/blast_furnace_front",
		"2": "block/cauldron_side",
		"3": "block/gray_shulker_box",
		"particle": "block/bw_netherite_block"
	}
}