{
  "__comment": "Items",
  "parent": "minecraft:item/generated",
  "textures": {
    "layer0": "minecraft:item/light_blue_dye"
  },
  "overrides": [
    { "predicate": { "custom_model_data":   1 }, "model": "item/currency/ticket" },
    { "predicate": { "custom_model_data":   2 }, "model": "item/currency/obsidibuck" },
    { "predicate": { "custom_model_data":   3 }, "model": "item/currency/diamondbuck" },
    { "predicate": { "custom_model_data":   4 }, "model": "item/currency/goldbuck" },
    { "predicate": { "custom_model_data":   5 }, "model": "item/currency/ironbuck" }
  ]
}